16 Daten einlesen – Bausteine Computergestützter Datenanalyse
…
18.6 Importassistent 3/3

d<-read_excel("daten/unistrasse-2017.xlsx",sheet="raw(T)",range="B2:H20712")
d

# A tibble: 20,710 × 7
   Datum      Geschwindigkeit Fahrtrichtung Abstand `Länge (Radar)` `Länge (cm)`
   <chr>                <dbl> <chr>           <dbl>           <dbl>        <dbl>
 1 13.12.201…              70 Ankommend      262.               372          421
 2 13.12.201…              59 Ankommend        5.18             401          454
 3 13.12.201…              79 Ankommend       15.7              403          456
 4 13.12.201…              58 Ankommend      111.               423          479
 5 13.12.201…              60 Ankommend       69.5              372          421
 6 13.12.201…              57 Ankommend       16.7              430          487
 7 13.12.201…              58 Ankommend       63.9              342          387
 8 13.12.201…              54 Ankommend       90.7              422          478
 9 13.12.201…              56 Ankommend      122.               436          493
10 13.12.201…              61 Ankommend      354.               377          427
# ℹ 20,700 more rows
# ℹ 1 more variable: Fahrzeug <chr>
…
Kodierung beim Einlesen explizit angeben

19.6 Beispiel: Niederschlagsdaten Bochum

read_delim(
  "daten/produkt_nieder_monat_18910101_20171231_00555.txt",
  delim = ";", trim_ws=TRUE,
  locale = locale(decimal_mark = ".", grouping_mark = ",")
)

# A tibble: 1,144 × 9
   STATIONS_ID MESS_DATUM_BEGINN MESS_DATUM_ENDE  QN_6 MO_NSH MO_RR MO_SH_S
         <dbl>             <dbl>           <dbl> <dbl>  <dbl> <dbl>   <dbl>
 1         555          18910101        18910131     5   -999    61    -999
 2         555          18910201        18910228     5   -999     9    -999
 3         555          18910301        18910331     5   -999   105    -999
 4         555          18910401        18910430     5   -999    64    -999
 5         555          18910501        18910531     5   -999    61    -999
 6         555          18910601        18910630     5   -999   142    -999
 7         555          18910701        18910731     5   -999   117    -999
 8         555          18910801        18910831     5   -999    54    -999
 9         555          18910901        18910930     5   -999    20    -999
10         555          18911001        18911031     5   -999    38    -999
# ℹ 1,134 more rows
# ℹ 2 more variables: MX_RS <dbl>, eor <chr>
…
