17 Daten aufbereiten – Bausteine Computergestützter Datenanalyse
…
20 Variablen auswählen oder umbenennen mit select() und rename()

20.1 Wann braucht man das?

In der Datenquelle stehen mehr Informationen als benötigt

Die Namen der Merkmale sind in der Datei nicht gut gewählt

20.2 Beispieldatensatz

d_uni <- read_excel("daten/unistrasse-2017-2.xlsx", sheet = "raw(T)", range = "B2:H20712")
d_uni

# A tibble: 20,710 × 7
   Datum      Geschwindigkeit Fahrtrichtung Abstand `Länge (Radar)` `Länge (cm)`
   <chr>                <dbl> <chr>           <dbl>           <dbl>        <dbl>
 1 13.12.201…              70 Ankommend      262.               372          421
 2 13.12.201…              59 Ankommend        5.18             401          454
 3 13.12.201…              79 Ankommend       15.7              403          456
 4 13.12.201…              58 Ankommend      111.               423          479
 5 13.12.201…              60 Ankommend       69.5              372          421
 6 13.12.201…              57 Ankommend       16.7              430          487
 7 13.12.201…              58 Ankommend       63.9              342          387
 8 13.12.201…              54 Ankommend       90.7              422          478
 9 13.12.201…              56 Ankommend      122.               436          493
10 13.12.201…              61 Ankommend      354.               377          427
# ℹ 20,700 more rows
# ℹ 1 more variable: Fahrzeug <chr>

20.3 Variablen auswählen mit select()

d_uni |> select(Datum, Fahrzeug, Geschwindigkeit, "Länge (cm)")

# A tibble: 20,710 × 4
   Datum               Fahrzeug    Geschwindigkeit `Länge (cm)`
   <chr>               <chr>                 <dbl>        <dbl>
 1 13.12.2017 00:03:31 PKW                      70          421
 2 13.12.2017 00:03:37 PKW                      59          454
 3 13.12.2017 00:03:53 PKW                      79          456
 4 13.12.2017 00:05:42 PKW                      58          479
 5 13.12.2017 00:06:51 PKW                      60          421
 6 13.12.2017 00:07:08 Transporter              57          487
 7 13.12.2017 00:08:11 PKW                      58          387
 8 13.12.2017 00:09:41 PKW                      54          478
 9 13.12.2017 00:11:42 Transporter              56          493
10 13.12.2017 00:17:31 PKW                      61          427
# ℹ 20,700 more rows

Alle Merkmale angeben, die ausgewählt werden sollen

Anführungszeichen bei Spaltennamen mit Leerzeichen

20.4 Variablen entfernen mit select()

d_uni |> select(-Fahrtrichtung, -ends_with("(Radar)"))

# A tibble: 20,710 × 5
   Datum               Geschwindigkeit Abstand `Länge (cm)` Fahrzeug   
   <chr>                         <dbl>   <dbl>        <dbl> <chr>      
 1 13.12.2017 00:03:31              70  262.            421 PKW        
 2 13.12.2017 00:03:37              59    5.18          454 PKW        
 3 13.12.2017 00:03:53              79   15.7           456 PKW        
 4 13.12.2017 00:05:42              58  111.            479 PKW        
 5 13.12.2017 00:06:51              60   69.5           421 PKW        
 6 13.12.2017 00:07:08              57   16.7           487 Transporter
 7 13.12.2017 00:08:11              58   63.9           387 PKW        
 8 13.12.2017 00:09:41              54   90.7           478 PKW        
 9 13.12.2017 00:11:42              56  122.            493 Transporter
10 13.12.2017 00:17:31              61  354.            427 PKW        
# ℹ 20,700 more rows

Hier: Merkmale angegeben, die nicht ausgewählt werden sollen

Anführungszeichen bei Spaltennamen mit Leerzeichen

Wird einer Variablen ein - vorangestellt, dann wird die Spalte entfernt

Alle anderen Variablen werden beibehalten

20.5 Variablen umbenennen mit select()

d_uni |> select(Datum, FZ = Fahrzeug, v = Geschwindigkeit, L = "Länge (cm)")

# A tibble: 20,710 × 4
   Datum               FZ              v     L
   <chr>               <chr>       <dbl> <dbl>
 1 13.12.2017 00:03:31 PKW            70   421
 2 13.12.2017 00:03:37 PKW            59   454
 3 13.12.2017 00:03:53 PKW            79   456
 4 13.12.2017 00:05:42 PKW            58   479
 5 13.12.2017 00:06:51 PKW            60   421
 6 13.12.2017 00:07:08 Transporter    57   487
 7 13.12.2017 00:08:11 PKW            58   387
 8 13.12.2017 00:09:41 PKW            54   478
 9 13.12.2017 00:11:42 Transporter    56   493
10 13.12.2017 00:17:31 PKW            61   427
# ℹ 20,700 more rows
…
2
2
2

Mit starts_with() und ends_with() ein Muster für Namen festlegen

Funktioniert auch wieder mit -

20.8 Variablen umbenennen mit rename()

d_uni |> rename(v = Geschwindigkeit) 

# A tibble: 20,710 × 7
   Datum           v Fahrtrichtung Abstand `Länge (Radar)` `Länge (cm)` Fahrzeug
   <chr>       <dbl> <chr>           <dbl>           <dbl>        <dbl> <chr>   
 1 13.12.2017…    70 Ankommend      262.               372          421 PKW     
 2 13.12.2017…    59 Ankommend        5.18             401          454 PKW     
 3 13.12.2017…    79 Ankommend       15.7              403          456 PKW     
 4 13.12.2017…    58 Ankommend      111.               423          479 PKW     
 5 13.12.2017…    60 Ankommend       69.5              372          421 PKW     
 6 13.12.2017…    57 Ankommend       16.7              430          487 Transpo…
 7 13.12.2017…    58 Ankommend       63.9              342          387 PKW     
 8 13.12.2017…    54 Ankommend       90.7              422          478 PKW     
 9 13.12.2017…    56 Ankommend      122.               436          493 Transpo…
10 13.12.2017…    61 Ankommend      354.               377          427 PKW     
# ℹ 20,700 more rows
…
Alle anderen Variablen werden beibehalten

21 Beobachtungen auswählen mit filter() und slice()

21.1 Wann braucht man das?

Wenn einzelne Werte aussortiert werden sollen

Wenn man sich nur für bestimmte Beobachtungen interessiert

21.2 Wieder Beispieldatensatz

d_uni |> select(Datum, Fahrzeug, Geschwindigkeit, "Länge (cm)")

# A tibble: 20,710 × 4
   Datum               Fahrzeug    Geschwindigkeit `Länge (cm)`
   <chr>               <chr>                 <dbl>        <dbl>
 1 13.12.2017 00:03:31 PKW                      70          421
 2 13.12.2017 00:03:37 PKW                      59          454
 3 13.12.2017 00:03:53 PKW                      79          456
 4 13.12.2017 00:05:42 PKW                      58          479
 5 13.12.2017 00:06:51 PKW                      60          421
 6 13.12.2017 00:07:08 Transporter              57          487
 7 13.12.2017 00:08:11 PKW                      58          387
 8 13.12.2017 00:09:41 PKW                      54          478
 9 13.12.2017 00:11:42 Transporter              56          493
10 13.12.2017 00:17:31 PKW                      61          427
# ℹ 20,700 more rows

21.3 Filter: Nur LKW

d_uni |> filter(Fahrzeug == "LKW") |> select(Datum, Fahrzeug, Geschwindigkeit, "Länge (cm)")

# A tibble: 2,030 × 4
   Datum               Fahrzeug Geschwindigkeit `Länge (cm)`
   <chr>               <chr>              <dbl>        <dbl>
 1 13.12.2017 00:18:27 LKW                   61          591
 2 13.12.2017 01:21:34 LKW                   54          604
 3 13.12.2017 03:11:06 LKW                   52          834
 4 13.12.2017 03:39:18 LKW                   61          803
 5 13.12.2017 05:02:26 LKW                   54          607
 6 13.12.2017 05:14:03 LKW                   51          867
 7 13.12.2017 05:18:08 LKW                   53          590
 8 13.12.2017 05:38:30 LKW                   64          604
 9 13.12.2017 05:38:33 LKW                   52          766
10 13.12.2017 05:40:50 LKW                   61          600
# ℹ 2,020 more rows

Bedingung als logischer Ausdruck mit Name der Variablen

21.4 Filter: Nur LKW, die schneller als 60km/h gefahren sind

d_uni |> filter(Fahrzeug == "LKW" & Geschwindigkeit > 60) |> select(Datum, Fahrzeug, Geschwindigkeit, "Länge (cm)")

# A tibble: 194 × 4
   Datum               Fahrzeug Geschwindigkeit `Länge (cm)`
   <chr>               <chr>              <dbl>        <dbl>
 1 13.12.2017 00:18:27 LKW                   61          591
 2 13.12.2017 03:39:18 LKW                   61          803
 3 13.12.2017 05:38:30 LKW                   64          604
 4 13.12.2017 05:40:50 LKW                   61          600
 5 13.12.2017 05:43:56 LKW                   63          679
 6 13.12.2017 05:58:06 LKW                   61          604
 7 13.12.2017 06:01:32 LKW                   63          716
 8 13.12.2017 06:06:30 LKW                   70          879
 9 13.12.2017 06:14:08 LKW                   64          884
10 13.12.2017 06:24:38 LKW                   65          852
# ℹ 184 more rows

Bedingung als logischer Ausdruck mit Name der Variablen

Logisches und: &

21.5 Filter: Nur LKW oder Fahrzeuge, die schneller als 80km/h gefahren sind

d_uni |> filter(Fahrzeug == "LKW" | Geschwindigkeit > 80) |> select(Datum, Fahrzeug, Geschwindigkeit, "Länge (cm)")

# A tibble: 2,074 × 4
   Datum               Fahrzeug    Geschwindigkeit `Länge (cm)`
   <chr>               <chr>                 <dbl>        <dbl>
 1 13.12.2017 00:18:27 LKW                      61          591
 2 13.12.2017 01:21:34 LKW                      54          604
 3 13.12.2017 01:49:17 PKW                      83          470
 4 13.12.2017 01:59:28 Transporter              90          505
 5 13.12.2017 03:07:27 Transporter              91          510
 6 13.12.2017 03:11:06 LKW                      52          834
 7 13.12.2017 03:39:18 LKW                      61          803
 8 13.12.2017 05:02:26 LKW                      54          607
 9 13.12.2017 05:14:03 LKW                      51          867
10 13.12.2017 05:18:08 LKW                      53          590
# ℹ 2,064 more rows
…
d_uni |> filter(is.na(Fahrzeug)) |> select(Datum, Fahrzeug, Geschwindigkeit, "Länge (cm)")

# A tibble: 3 × 4
  Datum               Fahrzeug Geschwindigkeit `Länge (cm)`
  <chr>               <chr>              <dbl>        <dbl>
1 13.12.2017 08:15:37 <NA>                  37         2516
2 13.12.2017 15:26:21 <NA>                  50         2513
3 14.12.2017 15:53:05 <NA>                  55         2012

21.7 Filter: Zeilen mit NA entfernen

d_uni |> filter(!is.na(Fahrzeug)) |> select(Datum, Fahrzeug, Geschwindigkeit, "Länge (cm)")

# A tibble: 20,707 × 4
   Datum               Fahrzeug    Geschwindigkeit `Länge (cm)`
   <chr>               <chr>                 <dbl>        <dbl>
 1 13.12.2017 00:03:31 PKW                      70          421
 2 13.12.2017 00:03:37 PKW                      59          454
 3 13.12.2017 00:03:53 PKW                      79          456
 4 13.12.2017 00:05:42 PKW                      58          479
 5 13.12.2017 00:06:51 PKW                      60          421
 6 13.12.2017 00:07:08 Transporter              57          487
 7 13.12.2017 00:08:11 PKW                      58          387
 8 13.12.2017 00:09:41 PKW                      54          478
 9 13.12.2017 00:11:42 Transporter              56          493
10 13.12.2017 00:17:31 PKW                      61          427
# ℹ 20,697 more rows

21.8 Filter: Kriterium in Vektor

d_uni |> filter(Fahrzeug %in% c("Zweirad", "LKW")) |> select(Datum, Fahrzeug, Geschwindigkeit, "Länge (cm)")

# A tibble: 2,190 × 4
   Datum               Fahrzeug Geschwindigkeit `Länge (cm)`
   <chr>               <chr>              <dbl>        <dbl>
 1 13.12.2017 00:18:27 LKW                   61          591
 2 13.12.2017 01:21:34 LKW                   54          604
 3 13.12.2017 03:11:06 LKW                   52          834
 4 13.12.2017 03:18:53 Zweirad               27          179
 5 13.12.2017 03:39:18 LKW                   61          803
 6 13.12.2017 03:58:26 Zweirad               20          162
 7 13.12.2017 05:02:26 LKW                   54          607
 8 13.12.2017 05:14:03 LKW                   51          867
 9 13.12.2017 05:18:08 LKW                   53          590
10 13.12.2017 05:38:30 LKW                   64          604
# ℹ 2,180 more rows
…
min wie Minimum und max wie Maximum

22 Beobachtungen sortieren mit arrange()

22.1 Wann braucht man das?

Wenn man sich für die größten oder kleinsten Werte interessiert

Um die Reihenfolge beim Plotten zu ändern, so dass bestimmte Objekte über anderen liegen

22.2 Übersicht der langsamsten Fahrzeuge

d_uni |> arrange(Geschwindigkeit) |> select(Datum, Fahrzeug, v = Geschwindigkeit)

# A tibble: 20,710 × 3
   Datum               Fahrzeug     v
   <chr>               <chr>    <dbl>
 1 13.12.2017 17:12:52 Zweirad      7
 2 13.12.2017 08:46:38 PKW          9
 3 13.12.2017 16:09:52 Zweirad      9
 4 13.12.2017 17:12:41 PKW         10
 5 14.12.2017 13:49:04 PKW         10
 6 13.12.2017 09:58:47 Lastzug     12
 7 13.12.2017 17:12:39 PKW         12
 8 14.12.2017 11:36:16 LKW         13
 9 14.12.2017 16:44:06 PKW         13
10 13.12.2017 13:20:31 LKW         14
# ℹ 20,700 more rows

Sortiert aufsteigend nach dem angegebenen Merkmal

Schnellste Fahrer mit desc(merkmal) (sortiert absteigend)

22.3 Nach mehreren Kriterien sortieren (1/2)

d_uni |> arrange(Fahrzeug, Geschwindigkeit) |> select(Datum, Fahrzeug, v = Geschwindigkeit)

# A tibble: 20,710 × 3
   Datum               Fahrzeug     v
   <chr>               <chr>    <dbl>
 1 14.12.2017 11:36:16 LKW         13
 2 13.12.2017 13:20:31 LKW         14
 3 14.12.2017 08:47:25 LKW         18
 4 14.12.2017 07:56:33 LKW         19
 5 13.12.2017 11:29:06 LKW         20
 6 14.12.2017 15:04:33 LKW         20
 7 14.12.2017 08:04:03 LKW         21
 8 14.12.2017 17:46:07 LKW         22
 9 13.12.2017 10:00:53 LKW         23
10 13.12.2017 13:47:30 LKW         23
# ℹ 20,700 more rows

Zuerst nach Fahrzeugen sortieren

Innerhalb einer Fahrzeuggruppe nach Geschwindigkeit angeordnet

22.4 Nach mehreren Kriterien sortieren (2/2)

d_uni |> arrange(Geschwindigkeit, Fahrzeug) |> select(Datum, Fahrzeug, v = Geschwindigkeit)

# A tibble: 20,710 × 3
   Datum               Fahrzeug     v
   <chr>               <chr>    <dbl>
 1 13.12.2017 17:12:52 Zweirad      7
 2 13.12.2017 08:46:38 PKW          9
 3 13.12.2017 16:09:52 Zweirad      9
 4 13.12.2017 17:12:41 PKW         10
 5 14.12.2017 13:49:04 PKW         10
 6 13.12.2017 09:58:47 Lastzug     12
 7 13.12.2017 17:12:39 PKW         12
 8 14.12.2017 11:36:16 LKW         13
 9 14.12.2017 16:44:06 PKW         13
10 13.12.2017 13:20:31 LKW         14
# ℹ 20,700 more rows
…
Innerhalb einer Geschwindigkeiten nach Fahrzeugen angeordnet

23 Variablen hinzufügen oder verändern mit mutate()

23.1 Wann braucht man das?

Wenn aus den vorliegenden Werten neue Werte berechnet werden sollen

Wenn bestehende Werte verändert werden sollen (typischerweise: Datum)

23.2 Geschwindigkeit runden

d_uni |> mutate(V10 = signif(Geschwindigkeit, digits = 1))|> select(Datum, Fahrzeug, v = Geschwindigkeit, V10)

# A tibble: 20,710 × 4
   Datum               Fahrzeug        v   V10
   <chr>               <chr>       <dbl> <dbl>
 1 13.12.2017 00:03:31 PKW            70    70
 2 13.12.2017 00:03:37 PKW            59    60
 3 13.12.2017 00:03:53 PKW            79    80
 4 13.12.2017 00:05:42 PKW            58    60
 5 13.12.2017 00:06:51 PKW            60    60
 6 13.12.2017 00:07:08 Transporter    57    60
 7 13.12.2017 00:08:11 PKW            58    60
 8 13.12.2017 00:09:41 PKW            54    50
 9 13.12.2017 00:11:42 Transporter    56    60
10 13.12.2017 00:17:31 PKW            61    60
# ℹ 20,700 more rows

neue_variable = Ausdruck(alte_variablen)

Mehrere Variablen sind möglich

Mit signif() auf eine signifikante Stellte gerundet

23.3 Datum konvertieren

d_uni |> mutate(Datum = dmy_hms(Datum, tz = "Europe/Berlin")) |> select(Datum, Fahrzeug, v = Geschwindigkeit)

# A tibble: 20,710 × 3
   Datum               Fahrzeug        v
   <dttm>              <chr>       <dbl>
 1 2017-12-13 00:03:31 PKW            70
 2 2017-12-13 00:03:37 PKW            59
 3 2017-12-13 00:03:53 PKW            79
 4 2017-12-13 00:05:42 PKW            58
 5 2017-12-13 00:06:51 PKW            60
 6 2017-12-13 00:07:08 Transporter    57
 7 2017-12-13 00:08:11 PKW            58
 8 2017-12-13 00:09:41 PKW            54
 9 2017-12-13 00:11:42 Transporter    56
10 2017-12-13 00:17:31 PKW            61
# ℹ 20,700 more rows
…
Alter Wert von Datum wird überschrieben

Mit dmy_hms() in date-time konvertiert, Zeitzone angeben

Jetzt können wir mit dem Datum arbeiten

23.4 Datum und Uhrzeit konvertieren

d_uni |> 
  mutate(
    Datum = dmy_hms(Datum, tz = "Europe/Berlin"),
    Uhrzeit = as_hms(Datum)
  ) |> select(Datum, Uhrzeit, Fahrzeug, v = Geschwindigkeit)

# A tibble: 20,710 × 4
   Datum               Uhrzeit Fahrzeug        v
   <dttm>              <time>  <chr>       <dbl>
 1 2017-12-13 00:03:31 03'31"  PKW            70
 2 2017-12-13 00:03:37 03'37"  PKW            59
 3 2017-12-13 00:03:53 03'53"  PKW            79
 4 2017-12-13 00:05:42 05'42"  PKW            58
 5 2017-12-13 00:06:51 06'51"  PKW            60
 6 2017-12-13 00:07:08 07'08"  Transporter    57
 7 2017-12-13 00:08:11 08'11"  PKW            58
 8 2017-12-13 00:09:41 09'41"  PKW            54
 9 2017-12-13 00:11:42 11'42"  Transporter    56
10 2017-12-13 00:17:31 17'31"  PKW            61
# ℹ 20,700 more rows

Mit as_hms() die Uhrzeit heraussuchen (library(hms))

23.5 Mit der Uhrzeit rechnen

d_uni |> 
  mutate(
    Datum = dmy_hms(Datum, tz = "Europe/Berlin"),
    D15 = floor_date(Datum, "15 minutes"),
    Uhrzeit = as_hms(Datum)
  ) |> 
select(Datum, Uhrzeit, D15)

# A tibble: 20,710 × 3
   Datum               Uhrzeit D15                
   <dttm>              <time>  <dttm>             
 1 2017-12-13 00:03:31 03'31"  2017-12-13 00:00:00
 2 2017-12-13 00:03:37 03'37"  2017-12-13 00:00:00
 3 2017-12-13 00:03:53 03'53"  2017-12-13 00:00:00
 4 2017-12-13 00:05:42 05'42"  2017-12-13 00:00:00
 5 2017-12-13 00:06:51 06'51"  2017-12-13 00:00:00
 6 2017-12-13 00:07:08 07'08"  2017-12-13 00:00:00
 7 2017-12-13 00:08:11 08'11"  2017-12-13 00:00:00
 8 2017-12-13 00:09:41 09'41"  2017-12-13 00:00:00
 9 2017-12-13 00:11:42 11'42"  2017-12-13 00:00:00
10 2017-12-13 00:17:31 17'31"  2017-12-13 00:15:00
# ℹ 20,700 more rows
floor_date(x, unit) rundet die Datums- oder Zeitangabe auf die angegebene Einheit (unit) ab (floor) (library(lubridate))

23.6 Alles in einem Rutsch

d_unistrasse <- read_excel("daten/unistrasse-2017-2.xlsx",sheet="raw(T)",range="B2:H20712") |>
  select(Datum, Fz = Fahrzeug, L = `Länge (cm)`, v = Geschwindigkeit) |>
  filter(!is.na(Fz)) |>
  mutate(
    Datum = dmy_hms(Datum, tz = "Europe/Berlin"),
    D15 = floor_date(Datum, "15 minutes"),
    Uhrzeit = as_hms(Datum)
  )
d_unistrasse |> select(Datum, Uhrzeit, D15, Fz, L, v)

# A tibble: 20,707 × 6
   Datum               Uhrzeit D15                 Fz              L     v
   <dttm>              <time>  <dttm>              <chr>       <dbl> <dbl>
 1 2017-12-13 00:03:31 03'31"  2017-12-13 00:00:00 PKW           421    70
 2 2017-12-13 00:03:37 03'37"  2017-12-13 00:00:00 PKW           454    59
 3 2017-12-13 00:03:53 03'53"  2017-12-13 00:00:00 PKW           456    79
 4 2017-12-13 00:05:42 05'42"  2017-12-13 00:00:00 PKW           479    58
 5 2017-12-13 00:06:51 06'51"  2017-12-13 00:00:00 PKW           421    60
 6 2017-12-13 00:07:08 07'08"  2017-12-13 00:00:00 Transporter   487    57
 7 2017-12-13 00:08:11 08'11"  2017-12-13 00:00:00 PKW           387    58
 8 2017-12-13 00:09:41 09'41"  2017-12-13 00:00:00 PKW           478    54
 9 2017-12-13 00:11:42 11'42"  2017-12-13 00:00:00 Transporter   493    56
10 2017-12-13 00:17:31 17'31"  2017-12-13 00:15:00 PKW           427    61
# ℹ 20,697 more rows
…
