Grundlagen von ggplot2
…
→ Am Ende des Semesters werden Sie das verstehen!

3 Datensatz für diese Folien

Daten laden und anzeigen

Daten aus Datei laden

load("daten/data-lecture.Rdata")

Dataframe anzeigen

show(d_wb_2012)

# A tibble: 170 × 7
    year country                  pop      gge     gdp region              ig   
   <int> <chr>                  <dbl>    <dbl>   <dbl> <chr>               <fct>
 1  2012 Afghanistan         31161376  18169.  2.00e10 South Asia          Low …
 2  2012 Albania              2900401   8899.  1.23e10 Europe & Central A… Uppe…
 3  2012 Algeria             37383887 176471.  2.09e11 Middle East & Nort… Uppe…
 4  2012 American Samoa         55667     58.8 6.44e 8 East Asia & Pacific Uppe…
 5  2012 Angola              25107931  41657.  1.28e11 Sub-Saharan Africa  Lowe…
 6  2012 Antigua and Barbuda    90409    553.  1.21e 9 Latin America & Ca… High…
 7  2012 Argentina           41733271 380295.  5.46e11 Latin America & Ca… Uppe…
 8  2012 Armenia              2884229  12319.  1.06e10 Europe & Central A… Uppe…
 9  2012 Australia           22733465 761686.  1.55e12 East Asia & Pacific High…
10  2012 Austria              8429991  90460.  4.09e11 Europe & Central A… High…
# ℹ 160 more rows
…
